Project 2
…
 [1] 8.67 8.50 8.42 8.42 8.25 8.42 8.33 8.50 8.58 8.50 8.25 8.17 8.33
[14] 8.08 8.50 8.58 8.25 8.08 8.08 8.17 8.17 8.08 8.17 8.08 8.17 8.08
[27] 8.08 8.25 8.17 8.17 6.75 6.33 6.75 6.75 6.75 6.75 6.42 6.58 6.67
[40] 6.75 6.33 6.67 6.75 6.75 6.67 6.50 6.17 6.67 6.67 6.17 6.67 6.67
[53] 6.58 6.58 6.33 6.67 6.42 6.50 6.58 6.50 6.50 6.67 6.50 6.33 6.67
[66] 6.67 6.75 6.58 6.67 6.17 6.17 6.50 6.67 6.17 6.58 6.33 6.42 6.17
[79] 6.17 6.17 6.25 6.42 6.33 6.67 0.00 6.75 6.50

Extracting all the rows corresponding to these outliers:

out <- boxplot.stats(coffee_ratings$aftertaste)$out
out_ind <- which(coffee_ratings$aftertaste %in% c(out))
coffee_ratings[out_ind,]  

# A tibble: 87 x 43
   total_cup_points species owner     country_of_origin farm_name     
              <dbl> <chr>   <chr>     <chr>             <chr>         
 1             90.6 Arabica metad plc Ethiopia          "metad plc"   
 2             89.9 Arabica metad plc Ethiopia          "metad plc"   
 3             89.8 Arabica grounds ~ Guatemala         "san marcos b~
 4             89   Arabica yidnekac~ Ethiopia          "yidnekachew ~
 5             88.8 Arabica metad plc Ethiopia          "metad plc"   
 6             88.8 Arabica ji-ae ahn Brazil             <NA>         
 7             88.8 Arabica hugo val~ Peru               <NA>         
 8             88.7 Arabica ethiopia~ Ethiopia          "aolme"       
 9             88.4 Arabica ethiopia~ Ethiopia          "aolme"       
10             88.2 Arabica diamond ~ Ethiopia          "tulla coffee~
# ... with 77 more rows, and 38 more variables: lot_number <chr>,
#   mill <chr>, ico_number <chr>, company <chr>, altitude <chr>,
#   region <chr>, producer <chr>, number_of_bags <dbl>,
#   bag_weight <chr>, in_country_partner <chr>, harvest_year <chr>,
#   grading_date <chr>, owner_1 <chr>, variety <chr>,
#   processing_method <chr>, aroma <dbl>, flavor <dbl>,
#   aftertaste <dbl>, acidity <dbl>, body <dbl>, balance <dbl>,
#   uniformity <dbl>, clean_cup <dbl>, sweetness <dbl>,
#   cupper_points <dbl>, moisture <dbl>, category_one_defects <dbl>,
…
We can also extract the values of outliers by using the boxplot.ststs()out function

boxplot.stats(coffee_ratings$acidity)$out

 [1] 8.75 8.58 8.42 8.42 8.50 8.50 8.50 8.42 8.42 8.50 8.50 8.42 8.50
[14] 8.50 8.42 5.25 6.67 6.67 6.08 6.67 6.67 6.50 6.67 6.25 0.00

out <- boxplot.stats(coffee_ratings$acidity)$out
out_ind <- which(coffee_ratings$acidity %in% c(out))
coffee_ratings[out_ind,] 

# A tibble: 25 x 43
   total_cup_points species owner     country_of_origin farm_name     
              <dbl> <chr>   <chr>     <chr>             <chr>         
 1             90.6 Arabica metad plc Ethiopia          "metad plc"   
 2             89.9 Arabica metad plc Ethiopia          "metad plc"   
 3             89.8 Arabica grounds ~ Guatemala         "san marcos b~
 4             89   Arabica yidnekac~ Ethiopia          "yidnekachew ~
 5             88.8 Arabica metad plc Ethiopia          "metad plc"   
 6             88.8 Arabica ji-ae ahn Brazil             <NA>         
 7             88.8 Arabica hugo val~ Peru               <NA>         
 8             88.7 Arabica ethiopia~ Ethiopia          "aolme"       
 9             88.4 Arabica ethiopia~ Ethiopia          "aolme"       
10             88.2 Arabica diamond ~ Ethiopia          "tulla coffee~
# ... with 15 more rows, and 38 more variables: lot_number <chr>,
#   mill <chr>, ico_number <chr>, company <chr>, altitude <chr>,
#   region <chr>, producer <chr>, number_of_bags <dbl>,
#   bag_weight <chr>, in_country_partner <chr>, harvest_year <chr>,
#   grading_date <chr>, owner_1 <chr>, variety <chr>,
#   processing_method <chr>, aroma <dbl>, flavor <dbl>,
#   aftertaste <dbl>, acidity <dbl>, body <dbl>, balance <dbl>,
#   uniformity <dbl>, clean_cup <dbl>, sweetness <dbl>,
#   cupper_points <dbl>, moisture <dbl>, category_one_defects <dbl>,
…
For categorical variable, I will be using Producers:

Top 10 Producers of coffee

glimpse(coffee_ratings$producer)

 chr [1:1339] "METAD PLC" "METAD PLC" NA ...

Frequency table for Producers

coffee_producers<- as.data.frame(sort(table(grep('^[A-Za-z ]+$', coffee_ratings$producer, value = TRUE))),decreasing = TRUE)
colnames(coffee_producers)<-c('producers', 'count')
tibble(coffee_producers) 

# A tibble: 429 x 2
   producers                   count
   <fct>                       <int>
 1 Acacia Hills Ltd                1
 2 ADRIANA TORRES RICO QUEVEDO     1
 3 AGRICOLA MONTE VERDE            1
 4 AGROINDUSTRIAS CAFETALERAS      1
 5 Agrotello Coop                  1
 6 ALBERTA TEODORO ANALCO          1
 7 ALFREDO MOISES CEJA             1
 8 Alvaro Resende Aguiar           1
 9 AMADOR HERNANDEZ DIONICIO       1
10 AMANCIO DEL VALLE CARRILLO      1
# ... with 419 more rows
…
